1 10 20
100 200 125
201 210 89
900 1000 174
521 880 179
124 151 122
5612 5521 236
8740 9884 260
14 56 113
10000 20000 279
5241 9988 262
123456 654321 509
7281 11231 268
48 998 179
10 2900 209
591 890 179
4419 52451 324
7889 12340 268
200 300 128
1000 2000 182
540 890 179
449980 998289 525
42414 76757 340
441 552 142
552 661 145
321 456 144
7457 8998 252
431 456 116
213 235 128
773 988 179
657 887 179
446 8791 262
342 73491 340
41 88 116
1 3 8
9 18024 279
41 2341 183
43 54 113
64536 78637 351
45 99 119
412 7683 262
542 897 179
62 89 116
414 588 142
144 459 144
149 541 144
12 8190 262
2 9 20
4141 4514 215
5000 10000 262
912 12312 268
4141 9122 262
4512 1324 238
231 941 179
391 291 144
2 1 2
14411 12349 276
12090 3123 268
32 43 110
453 321 144
59 13 113
124 345 144
23458 234890 443
1237 3464 217
235 890 179
658 245 145
2 9 20
53 23 112
234237 482390 449
865990 547842 525
899978 322242 525
553688 955982 525
234 549 144
9845 34429 311
4324 3216 238
1111 2222 182
3333 4444 238
8888 7777 252
66666 55555 335
9429 3242 262
21410 59492 340
1498 8141 262
41123 32881 324
141241 25121 354
4312 5329 215
7757 65346 340
5423 6564 262
763 653 171
235 569 144
5433 4324 215
126 631 144
34 45 110
62 52 113
6432 3242 262
342 63 144
125616 342 354
4324 342 238
456 5679 238
42 652 145
2521 3452 217
4342 6009 236
3991 488 238
39292 349493 443
5123 4356 215
34988 924988 525
23414 889288 525
123 4889 238
